// Jest Snapshot v1, https://goo.gl/fbAQLP

exports[`<TradingView /> when it runs should be mounted 1`] = `
<Provider
  store={
    Object {
      "clearActions": [Function],
      "dispatch": [Function],
      "getActions": [Function],
      "getState": [Function],
      "replaceReducer": [Function],
      "subscribe": [Function],
    }
  }
>
  <WithStyles(TradingView)
    authenticated={false}
    checkUser={
      [MockFunction] {
        "calls": Array [
          Array [],
        ],
        "results": Array [
          Object {
            "type": "return",
            "value": undefined,
          },
        ],
      }
    }
    newPosition={Object {}}
    selectedMarket="DOW"
  >
    <TradingView
      authenticated={false}
      checkUser={
        [MockFunction] {
          "calls": Array [
            Array [],
          ],
          "results": Array [
            Object {
              "type": "return",
              "value": undefined,
            },
          ],
        }
      }
      classes={
        Object {
          "avatar": "TradingView-avatar-1",
          "cell": "TradingView-cell-11",
          "checked": "TradingView-checked-5",
          "colorBar": "TradingView-colorBar-9",
          "colorChecked": "TradingView-colorChecked-8",
          "colorSwitchBase": "TradingView-colorSwitchBase-7",
          "formControl": "TradingView-formControl-6",
          "group": "TradingView-group-2",
          "h1": "TradingView-h1-12",
          "h2": "TradingView-h2-13",
          "long": "TradingView-long-3",
          "short": "TradingView-short-4",
          "table": "TradingView-table-10",
          "titleIcon": "TradingView-titleIcon-14",
        }
      }
      newPosition={Object {}}
      selectedMarket="DOW"
    >
      <styled.div>
        <div
          className="sc-fzqBZW eCRqaV"
        >
          <WithStyles(ForwardRef(Typography))
            variant="h2"
          >
            <ForwardRef(Typography)
              classes={
                Object {
                  "alignCenter": "MuiTypography-alignCenter",
                  "alignJustify": "MuiTypography-alignJustify",
                  "alignLeft": "MuiTypography-alignLeft",
                  "alignRight": "MuiTypography-alignRight",
                  "body1": "MuiTypography-body1",
                  "body2": "MuiTypography-body2",
                  "button": "MuiTypography-button",
                  "caption": "MuiTypography-caption",
                  "colorError": "MuiTypography-colorError",
                  "colorInherit": "MuiTypography-colorInherit",
                  "colorPrimary": "MuiTypography-colorPrimary",
                  "colorSecondary": "MuiTypography-colorSecondary",
                  "colorTextPrimary": "MuiTypography-colorTextPrimary",
                  "colorTextSecondary": "MuiTypography-colorTextSecondary",
                  "displayBlock": "MuiTypography-displayBlock",
                  "displayInline": "MuiTypography-displayInline",
                  "gutterBottom": "MuiTypography-gutterBottom",
                  "h1": "MuiTypography-h1",
                  "h2": "MuiTypography-h2",
                  "h3": "MuiTypography-h3",
                  "h4": "MuiTypography-h4",
                  "h5": "MuiTypography-h5",
                  "h6": "MuiTypography-h6",
                  "noWrap": "MuiTypography-noWrap",
                  "overline": "MuiTypography-overline",
                  "paragraph": "MuiTypography-paragraph",
                  "root": "MuiTypography-root",
                  "srOnly": "MuiTypography-srOnly",
                  "subtitle1": "MuiTypography-subtitle1",
                  "subtitle2": "MuiTypography-subtitle2",
                }
              }
              variant="h2"
            >
              <h2
                className="MuiTypography-root MuiTypography-h2"
              >
                Mi sección de trading
              </h2>
            </ForwardRef(Typography)>
          </WithStyles(ForwardRef(Typography))>
          <styled.div>
            <div
              className="sc-fzqNJr gUsMgj"
            >
              <ForwardRef
                style={
                  Object {
                    "fontSize": 60,
                  }
                }
              >
                <WithStyles(ForwardRef(SvgIcon))
                  style={
                    Object {
                      "fontSize": 60,
                    }
                  }
                >
                  <ForwardRef(SvgIcon)
                    classes={
                      Object {
                        "colorAction": "MuiSvgIcon-colorAction",
                        "colorDisabled": "MuiSvgIcon-colorDisabled",
                        "colorError": "MuiSvgIcon-colorError",
                        "colorPrimary": "MuiSvgIcon-colorPrimary",
                        "colorSecondary": "MuiSvgIcon-colorSecondary",
                        "fontSizeInherit": "MuiSvgIcon-fontSizeInherit",
                        "fontSizeLarge": "MuiSvgIcon-fontSizeLarge",
                        "fontSizeSmall": "MuiSvgIcon-fontSizeSmall",
                        "root": "MuiSvgIcon-root",
                      }
                    }
                    style={
                      Object {
                        "fontSize": 60,
                      }
                    }
                  >
                    <svg
                      aria-hidden="true"
                      className="MuiSvgIcon-root"
                      focusable="false"
                      style={
                        Object {
                          "fontSize": 60,
                        }
                      }
                      viewBox="0 0 24 24"
                    >
                      <path
                        d="M12 1L3 5v6c0 5.55 3.84 10.74 9 12 5.16-1.26 9-6.45 9-12V5l-9-4zm0 10.99h7c-.53 4.12-3.28 7.79-7 8.94V12H5V6.3l7-3.11v8.8z"
                      />
                    </svg>
                  </ForwardRef(SvgIcon)>
                </WithStyles(ForwardRef(SvgIcon))>
              </ForwardRef>
              <h1>
                No tienes acceso para ver esta sección
              </h1>
              <WithStyles(ForwardRef(Typography))
                color="secondary"
                paragraph={true}
              >
                <ForwardRef(Typography)
                  classes={
                    Object {
                      "alignCenter": "MuiTypography-alignCenter",
                      "alignJustify": "MuiTypography-alignJustify",
                      "alignLeft": "MuiTypography-alignLeft",
                      "alignRight": "MuiTypography-alignRight",
                      "body1": "MuiTypography-body1",
                      "body2": "MuiTypography-body2",
                      "button": "MuiTypography-button",
                      "caption": "MuiTypography-caption",
                      "colorError": "MuiTypography-colorError",
                      "colorInherit": "MuiTypography-colorInherit",
                      "colorPrimary": "MuiTypography-colorPrimary",
                      "colorSecondary": "MuiTypography-colorSecondary",
                      "colorTextPrimary": "MuiTypography-colorTextPrimary",
                      "colorTextSecondary": "MuiTypography-colorTextSecondary",
                      "displayBlock": "MuiTypography-displayBlock",
                      "displayInline": "MuiTypography-displayInline",
                      "gutterBottom": "MuiTypography-gutterBottom",
                      "h1": "MuiTypography-h1",
                      "h2": "MuiTypography-h2",
                      "h3": "MuiTypography-h3",
                      "h4": "MuiTypography-h4",
                      "h5": "MuiTypography-h5",
                      "h6": "MuiTypography-h6",
                      "noWrap": "MuiTypography-noWrap",
                      "overline": "MuiTypography-overline",
                      "paragraph": "MuiTypography-paragraph",
                      "root": "MuiTypography-root",
                      "srOnly": "MuiTypography-srOnly",
                      "subtitle1": "MuiTypography-subtitle1",
                      "subtitle2": "MuiTypography-subtitle2",
                    }
                  }
                  color="secondary"
                  paragraph={true}
                >
                  <p
                    className="MuiTypography-root MuiTypography-body1 MuiTypography-colorSecondary MuiTypography-paragraph"
                  >
                    Accede para ver el contenido
                  </p>
                </ForwardRef(Typography)>
              </WithStyles(ForwardRef(Typography))>
              <e
                firebaseAuth={
                  Object {
                    "apiKey": "AIzaSyCXmTetg4x1D_3JixO8X6BpJe8iQrCqijw",
                    "appName": "[DEFAULT]",
                    "authDomain": "adolfo-onrubia-trading-app.firebaseapp.com",
                    "currentUser": null,
                    "onAuthStateChanged": [Function],
                    "signOut": [Function],
                  }
                }
                uiConfig={
                  Object {
                    "callbacks": Object {
                      "signInSuccessWithAuthResult": [Function],
                    },
                    "signInFlow": "popup",
                    "signInOptions": Array [
                      "google.com",
                    ],
                  }
                }
              />
            </div>
          </styled.div>
        </div>
      </styled.div>
    </TradingView>
  </WithStyles(TradingView)>
</Provider>
`;
