// Jest Snapshot v1, https://goo.gl/fbAQLP

exports[`<DeveloperView /> Shallow rendering should match snapshot 1`] = `
<List
  title="Test"
>
  <styled.div
    key="Test"
  >
    <li>
      Test
    </li>
    <ul />
  </styled.div>
  <styled.div
    key="Test with list"
  >
    <li>
      Test with list
    </li>
    <ul>
      <li
        key="list item"
      >
        list item
      </li>
    </ul>
  </styled.div>
</List>
`;
